comuni;latitudine;longitudine
0;45.03046218553732;10.747851841445552
1;45.13046218553732;10.747851841445552
2;45.23046218553732;10.747851841445552
3;45.33046218553733;10.747851841445552
4;45.43046218553732;10.747851841445552
5;45.53046218553732;10.747851841445552
6;45.63046218553732;10.747851841445552
7;45.73046218553732;10.747851841445552
8;45.83046218553733;10.747851841445552
9;45.03046218553732;10.847851841445554
10;45.13046218553732;10.847851841445554
11;45.23046218553732;10.847851841445554
12;45.33046218553733;10.847851841445554
13;45.43046218553732;10.847851841445554
14;45.53046218553732;10.847851841445554
15;45.63046218553732;10.847851841445554
16;45.73046218553732;10.847851841445554
17;45.83046218553733;10.847851841445554
18;45.03046218553732;10.947851841445551
19;45.13046218553732;10.947851841445551
20;45.23046218553732;10.947851841445551
21;45.33046218553733;10.947851841445551
22;45.43046218553732;10.947851841445551
23;45.53046218553732;10.947851841445551
24;45.53046218553732;11.04785184144555
25;45.63046218553732;10.947851841445551
26;45.63046218553732;11.04785184144555
27;45.73046218553732;10.947851841445551
28;45.73046218553732;11.04785184144555
29;45.43046218553732;11.04785184144555
30;45.33046218553733;11.04785184144555
31;45.23046218553732;11.04785184144555
32;45.13046218553732;11.04785184144555
33;45.03046218553732;11.04785184144555
34;45.03046218553732;11.14785184144555
35;45.13046218553732;11.14785184144555
36;45.23046218553732;11.14785184144555
37;45.33046218553733;11.14785184144555
38;45.43046218553732;11.14785184144555
39;45.53046218553732;11.14785184144555
40;45.63046218553732;11.14785184144555
41;45.73046218553732;11.14785184144555
42;45.83046218553733;11.247851841445552
43;45.73046218553732;11.247851841445552
44;45.63046218553732;11.247851841445552
45;45.53046218553732;11.247851841445552
46;45.43046218553732;11.247851841445552
47;45.33046218553733;11.247851841445552
48;45.23046218553732;11.247851841445552
49;45.13046218553732;11.247851841445552
50;45.03046218553732;11.247851841445552
51;45.03046218553732;11.947851841445551
52;45.03046218553732;11.847851841445554
53;45.13046218553732;11.947851841445551
54;45.13046218553732;11.847851841445554
55;45.23046218553732;11.947851841445551
56;45.23046218553732;11.847851841445554
57;45.33046218553733;11.847851841445554
58;45.43046218553732;11.947851841445551
59;45.43046218553732;11.847851841445554
60;45.53046218553732;11.947851841445551
61;45.53046218553732;11.847851841445554
62;45.63046218553732;11.947851841445551
63;45.63046218553732;11.847851841445554
64;45.33046218553733;11.947851841445551
65;45.03046218553732;11.54785184144555
66;45.03046218553732;11.447851841445551
67;45.03046218553732;11.347851841445554
68;45.13046218553732;11.54785184144555
69;45.13046218553732;11.447851841445551
70;45.13046218553732;11.347851841445554
71;45.23046218553732;11.54785184144555
72;45.23046218553732;11.447851841445551
73;45.23046218553732;11.347851841445554
74;45.33046218553733;11.54785184144555
75;45.33046218553733;11.447851841445551
76;45.33046218553733;11.347851841445554
77;45.43046218553732;11.54785184144555
78;45.43046218553732;11.447851841445551
79;45.43046218553732;11.347851841445554
80;45.53046218553732;11.54785184144555
81;45.53046218553732;11.447851841445551
82;45.53046218553732;11.347851841445554
83;45.63046218553732;11.54785184144555
84;45.63046218553732;11.447851841445551
85;45.63046218553732;11.347851841445554
86;45.23046218553732;11.64785184144555
87;45.63046218553732;11.64785184144555
88;45.53046218553732;11.64785184144555
89;45.43046218553732;11.64785184144555
90;45.33046218553733;11.64785184144555
91;45.13046218553732;11.64785184144555
92;45.03046218553732;11.64785184144555
93;45.63046218553732;11.747851841445552
94;45.53046218553732;11.747851841445552
95;45.43046218553732;11.747851841445552
96;45.33046218553733;11.747851841445552
97;45.23046218553732;11.747851841445552
98;45.13046218553732;11.747851841445552
99;45.03046218553732;11.747851841445552
100;45.73046218553732;11.447851841445551
101;45.73046218553732;11.347851841445554
102;45.83046218553733;11.447851841445551
103;45.83046218553733;11.347851841445554
104;45.93046218553732;11.447851841445551
105;45.93046218553732;11.347851841445554
106;44.93046218553732;12.347851841445554
107;45.03046218553732;12.247851841445552
108;45.03046218553732;12.347851841445554
109;45.13046218553732;12.247851841445552
110;45.13046218553732;12.347851841445554
111;45.23046218553732;12.247851841445552
112;45.23046218553732;12.347851841445554
113;45.33046218553733;12.247851841445552
114;45.33046218553733;12.347851841445554
115;45.43046218553732;12.247851841445552
116;45.43046218553732;12.347851841445554
117;45.53046218553732;12.247851841445552
118;45.53046218553732;12.347851841445554
119;45.63046218553732;12.247851841445552
120;45.63046218553732;12.347851841445554
121;45.73046218553732;12.247851841445552
122;45.73046218553732;12.347851841445554
123;45.83046218553733;12.247851841445552
124;45.83046218553733;12.347851841445554
125;45.93046218553732;12.247851841445552
126;45.93046218553732;12.347851841445554
127;46.03046218553732;12.247851841445552
128;46.03046218553732;12.347851841445554
129;46.13046218553732;12.247851841445552
130;46.13046218553732;12.347851841445554
131;46.23046218553732;12.247851841445552
132;46.23046218553732;12.347851841445554
133;46.33046218553733;12.247851841445552
134;46.33046218553733;12.347851841445554
135;46.43046218553732;12.347851841445554
136;46.43046218553732;12.247851841445552
137;46.63046218553732;12.247851841445552
138;46.53046218553732;12.247851841445552
139;45.13046218553732;12.04785184144555
140;45.23046218553732;12.04785184144555
141;45.33046218553733;12.04785184144555
142;45.43046218553732;12.04785184144555
143;45.53046218553732;12.04785184144555
144;45.63046218553732;12.04785184144555
145;45.73046218553732;12.04785184144555
146;45.73046218553732;11.64785184144555
147;45.73046218553732;11.54785184144555
148;45.73046218553732;11.747851841445552
149;45.73046218553732;11.847851841445554
150;45.73046218553732;11.947851841445551
151;45.83046218553733;12.04785184144555
152;45.83046218553733;11.64785184144555
153;45.83046218553733;11.54785184144555
154;45.83046218553733;11.747851841445552
155;45.83046218553733;11.847851841445554
156;45.93046218553732;12.04785184144555
157;45.93046218553732;11.64785184144555
158;45.93046218553732;11.54785184144555
159;45.93046218553732;11.747851841445552
160;45.93046218553732;11.847851841445554
161;46.53046218553732;11.947851841445551
162;46.43046218553732;11.947851841445551
163;46.33046218553733;11.947851841445551
164;46.13046218553732;11.947851841445551
165;46.03046218553732;11.947851841445551
166;45.93046218553732;11.947851841445551
167;45.83046218553733;11.947851841445551
168;46.53046218553732;12.04785184144555
169;46.23046218553732;12.14785184144555
170;46.63046218553732;12.14785184144555
171;46.53046218553732;12.14785184144555
172;46.43046218553732;12.14785184144555
173;46.33046218553733;12.14785184144555
174;46.13046218553732;12.14785184144555
175;46.03046218553732;12.14785184144555
176;45.93046218553732;12.14785184144555
177;45.83046218553733;12.14785184144555
178;45.73046218553732;12.14785184144555
179;45.63046218553732;12.14785184144555
180;45.53046218553732;12.14785184144555
181;45.43046218553732;12.14785184144555
182;45.33046218553733;12.14785184144555
183;45.23046218553732;12.14785184144555
184;45.13046218553732;12.14785184144555
185;45.03046218553732;12.14785184144555
186;44.93046218553732;12.447851841445551
187;45.03046218553732;12.447851841445551
188;45.53046218553732;12.447851841445551
189;45.53046218553732;12.54785184144555
190;45.63046218553732;12.447851841445551
191;45.63046218553732;12.54785184144555
192;45.73046218553732;12.447851841445551
193;45.73046218553732;12.54785184144555
194;45.83046218553733;12.447851841445551
195;45.83046218553733;12.54785184144555
196;45.93046218553732;12.447851841445551
197;45.93046218553732;12.54785184144555
198;46.03046218553732;12.447851841445551
199;46.13046218553732;12.447851841445551
200;46.23046218553732;12.447851841445551
201;46.43046218553732;12.447851841445551
202;45.03046218553732;12.54785184144555
203;45.63046218553732;12.64785184144555
204;45.73046218553732;12.64785184144555
205;45.83046218553733;12.64785184144555
206;45.83046218553733;12.747851841445552
207;45.73046218553732;12.747851841445552
208;45.63046218553732;12.747851841445552
209;45.73046218553732;13.04785184144555
210;45.83046218553733;12.847851841445546
211;45.73046218553732;12.847851841445546
212;45.63046218553732;12.847851841445546
213;45.83046218553733;12.947851841445551
214;45.73046218553732;12.947851841445551
215;46.03046218553732;12.04785184144555
216;46.03046218553732;11.54785184144555
217;46.03046218553732;11.747851841445552
218;46.03046218553732;11.847851841445554
219;46.13046218553732;12.04785184144555
220;46.13046218553732;11.747851841445552
221;46.13046218553732;11.847851841445554
222;46.23046218553732;12.04785184144555
223;46.33046218553733;12.04785184144555
224;46.43046218553732;12.04785184144555
225;46.53046218553732;12.64785184144555
226;46.53046218553732;12.54785184144555
227;46.53046218553732;12.447851841445551
228;46.53046218553732;12.347851841445554
229;46.63046218553732;12.747851841445552
230;46.63046218553732;12.64785184144555
231;46.63046218553732;12.54785184144555
232;46.63046218553732;12.447851841445551
233;46.63046218553732;12.347851841445554
234;45.23046218553732;8.64785184144555
235;45.33046218553733;8.64785184144555
236;45.13046218553732;8.747851841445549
237;45.23046218553732;8.747851841445549
238;45.33046218553733;8.747851841445549
239;45.63046218553732;8.747851841445549
240;45.73046218553732;8.747851841445549
241;45.73046218553732;8.84785184144555
242;45.83046218553733;8.747851841445549
243;45.83046218553733;8.64785184144555
244;45.83046218553733;8.84785184144555
245;45.93046218553732;8.747851841445549
246;45.93046218553732;8.64785184144555
247;45.93046218553732;8.84785184144555
248;45.63046218553732;8.84785184144555
249;45.53046218553732;8.84785184144555
250;45.33046218553733;8.84785184144555
251;45.23046218553732;8.84785184144555
252;45.13046218553732;8.84785184144555
253;45.13046218553732;8.947851841445551
254;45.23046218553732;8.947851841445551
255;45.33046218553733;8.947851841445551
256;45.43046218553732;8.947851841445551
257;45.53046218553732;8.947851841445551
258;45.63046218553732;8.947851841445551
259;45.73046218553732;8.947851841445551
260;45.83046218553733;8.947851841445551
261;45.93046218553732;8.947851841445551
262;46.03046218553732;8.747851841445549
263;46.03046218553732;8.84785184144555
264;46.13046218553732;8.84785184144555
265;45.03046218553732;9.04785184144555
266;45.13046218553732;9.04785184144555
267;45.23046218553732;9.04785184144555
268;45.33046218553733;9.04785184144555
269;45.43046218553732;9.04785184144555
270;45.53046218553732;9.04785184144555
271;45.63046218553732;9.04785184144555
272;45.73046218553732;9.04785184144555
273;45.83046218553733;9.04785184144555
274;44.93046218553732;9.14785184144555
275;45.03046218553732;9.14785184144555
276;45.13046218553732;9.14785184144555
277;45.23046218553732;9.14785184144555
278;45.33046218553733;9.14785184144555
279;45.43046218553732;9.14785184144555
280;45.53046218553732;9.14785184144555
281;45.53046218553732;9.247851841445549
282;45.63046218553732;9.14785184144555
283;45.63046218553732;9.247851841445549
284;45.73046218553732;9.14785184144555
285;45.73046218553732;9.247851841445549
286;45.83046218553733;9.14785184144555
287;45.83046218553733;9.247851841445549
288;45.93046218553732;9.14785184144555
289;45.93046218553732;9.247851841445549
290;46.03046218553732;9.14785184144555
291;46.03046218553732;9.247851841445549
292;46.13046218553732;9.14785184144555
293;46.13046218553732;9.247851841445549
294;46.23046218553732;9.247851841445549
295;45.43046218553732;9.247851841445549
296;45.33046218553733;9.247851841445549
297;45.23046218553732;9.247851841445549
298;45.13046218553732;9.247851841445549
299;45.03046218553732;9.247851841445549
300;44.93046218553732;9.247851841445549
301;44.83046218553733;9.247851841445549
302;44.83046218553733;9.347851841445554
303;45.03046218553732;9.347851841445554
304;45.13046218553732;9.347851841445554
305;45.23046218553732;9.347851841445554
306;45.33046218553733;9.347851841445554
307;45.43046218553732;9.347851841445554
308;45.53046218553732;9.347851841445554
309;45.63046218553732;9.347851841445554
310;45.73046218553732;9.347851841445554
311;45.83046218553733;9.347851841445554
312;45.93046218553732;9.347851841445554
313;46.03046218553732;9.347851841445554
314;46.13046218553732;9.347851841445554
315;46.13046218553732;9.447851841445551
316;46.23046218553732;9.347851841445554
317;46.23046218553732;9.447851841445551
318;46.33046218553733;9.347851841445554
319;46.33046218553733;9.447851841445551
320;46.43046218553732;9.347851841445554
321;46.43046218553732;9.447851841445551
322;46.03046218553732;9.447851841445551
323;45.93046218553732;9.447851841445551
324;45.83046218553733;9.447851841445551
325;45.73046218553732;9.447851841445551
326;45.63046218553732;9.447851841445551
327;45.53046218553732;9.447851841445551
328;45.43046218553732;9.447851841445551
329;45.33046218553733;9.447851841445551
330;45.23046218553732;9.447851841445551
331;45.13046218553732;9.447851841445551
332;46.53046218553732;9.347851841445554
333;45.23046218553732;9.54785184144555
334;46.33046218553733;9.54785184144555
335;46.23046218553732;9.54785184144555
336;46.13046218553732;9.54785184144555
337;46.03046218553732;9.54785184144555
338;45.93046218553732;9.54785184144555
339;45.83046218553733;9.54785184144555
340;45.73046218553732;9.54785184144555
341;45.63046218553732;9.54785184144555
342;45.53046218553732;9.54785184144555
343;45.43046218553732;9.54785184144555
344;45.33046218553733;9.54785184144555
345;46.33046218553733;9.64785184144555
346;46.23046218553732;9.64785184144555
347;46.13046218553732;9.64785184144555
348;46.03046218553732;9.64785184144555
349;45.93046218553732;9.64785184144555
350;45.83046218553733;9.64785184144555
351;45.73046218553732;9.64785184144555
352;45.63046218553732;9.64785184144555
353;45.53046218553732;9.64785184144555
354;45.43046218553732;9.64785184144555
355;45.33046218553733;9.64785184144555
356;45.23046218553732;9.64785184144555
357;45.23046218553732;9.747851841445552
358;46.33046218553733;9.747851841445552
359;46.23046218553732;9.747851841445552
360;46.13046218553732;9.747851841445552
361;46.03046218553732;9.747851841445552
362;45.93046218553732;9.747851841445552
363;45.83046218553733;9.747851841445552
364;45.73046218553732;9.747851841445552
365;45.63046218553732;9.747851841445552
366;45.53046218553732;9.747851841445552
367;45.43046218553732;9.747851841445552
368;45.33046218553733;9.747851841445552
369;45.13046218553732;9.747851841445552
370;46.33046218553733;9.847851841445554
371;46.23046218553732;9.847851841445554
372;46.13046218553732;9.847851841445554
373;46.03046218553732;9.847851841445554
374;45.93046218553732;9.847851841445554
375;45.83046218553733;9.847851841445554
376;45.73046218553732;9.847851841445554
377;45.63046218553732;9.847851841445554
378;45.53046218553732;9.847851841445554
379;45.43046218553732;9.847851841445554
380;45.33046218553733;9.847851841445554
381;45.23046218553732;9.847851841445554
382;45.23046218553732;9.947851841445551
383;46.33046218553733;9.947851841445551
384;46.23046218553732;9.947851841445551
385;46.13046218553732;9.947851841445551
386;46.03046218553732;9.947851841445551
387;45.93046218553732;9.947851841445551
388;45.83046218553733;9.947851841445551
389;45.73046218553732;9.947851841445551
390;45.63046218553732;9.947851841445551
391;45.53046218553732;9.947851841445551
392;45.43046218553732;9.947851841445551
393;45.33046218553733;9.947851841445551
394;46.33046218553733;10.04785184144555
395;46.23046218553732;10.04785184144555
396;46.13046218553732;10.04785184144555
397;46.03046218553732;10.04785184144555
398;45.93046218553732;10.04785184144555
399;45.83046218553733;10.04785184144555
400;45.73046218553732;10.04785184144555
401;45.63046218553732;10.04785184144555
402;45.53046218553732;10.04785184144555
403;45.43046218553732;10.04785184144555
404;45.33046218553733;10.04785184144555
405;45.23046218553732;10.04785184144555
406;45.23046218553732;10.14785184144555
407;46.63046218553732;10.14785184144555
408;46.53046218553732;10.14785184144555
409;46.23046218553732;10.14785184144555
410;46.13046218553732;10.14785184144555
411;46.03046218553732;10.14785184144555
412;45.93046218553732;10.14785184144555
413;45.83046218553733;10.14785184144555
414;45.73046218553732;10.14785184144555
415;45.63046218553732;10.14785184144555
416;45.53046218553732;10.14785184144555
417;45.43046218553732;10.14785184144555
418;45.33046218553733;10.14785184144555
419;45.13046218553732;10.14785184144555
420;46.63046218553732;10.247851841445552
421;46.53046218553732;10.247851841445552
422;46.43046218553732;10.247851841445552
423;46.33046218553733;10.247851841445552
424;46.23046218553732;10.247851841445552
425;46.13046218553732;10.247851841445552
426;46.03046218553732;10.247851841445552
427;45.93046218553732;10.247851841445552
428;45.83046218553733;10.247851841445552
429;45.73046218553732;10.247851841445552
430;45.63046218553732;10.247851841445552
431;45.53046218553732;10.247851841445552
432;45.43046218553732;10.247851841445552
433;45.33046218553733;10.247851841445552
434;45.23046218553732;10.247851841445552
435;45.13046218553732;10.247851841445552
436;45.13046218553732;10.447851841445551
437;45.13046218553732;10.347851841445554
438;45.23046218553732;10.447851841445551
439;45.23046218553732;10.347851841445554
440;45.33046218553733;10.447851841445551
441;45.33046218553733;10.347851841445554
442;45.43046218553732;10.447851841445551
443;45.43046218553732;10.347851841445554
444;45.53046218553732;10.447851841445551
445;45.53046218553732;10.347851841445554
446;45.63046218553732;10.447851841445551
447;45.63046218553732;10.347851841445554
448;45.73046218553732;10.447851841445551
449;45.73046218553732;10.347851841445554
450;46.53046218553732;10.347851841445554
451;46.53046218553732;10.447851841445551
452;45.03046218553732;10.54785184144555
453;45.13046218553732;10.54785184144555
454;45.23046218553732;10.54785184144555
455;45.33046218553733;10.54785184144555
456;45.43046218553732;10.54785184144555
457;45.53046218553732;10.54785184144555
458;45.63046218553732;10.54785184144555
459;45.73046218553732;10.64785184144555
460;45.73046218553732;10.54785184144555
461;45.83046218553733;10.447851841445551
462;45.83046218553733;10.64785184144555
463;45.83046218553733;10.347851841445554
464;45.83046218553733;10.54785184144555
465;45.93046218553732;10.447851841445551
466;45.93046218553732;10.347851841445554
467;45.63046218553732;10.64785184144555
468;45.53046218553732;10.64785184144555
469;45.43046218553732;10.64785184144555
470;45.33046218553733;10.64785184144555
471;45.23046218553732;10.64785184144555
472;45.13046218553732;10.64785184144555
473;45.03046218553732;10.64785184144555
474;46.03046218553732;10.447851841445551
475;46.03046218553732;10.347851841445554
476;46.13046218553732;10.447851841445551
477;46.13046218553732;10.347851841445554
478;46.13046218553732;10.54785184144555
479;46.23046218553732;10.447851841445551
480;46.23046218553732;10.347851841445554
481;46.23046218553732;10.54785184144555
482;46.33046218553733;10.447851841445551
483;46.33046218553733;10.347851841445554
484;46.33046218553733;10.54785184144555
485;46.43046218553732;10.447851841445551
486;46.43046218553732;10.64785184144555
487;46.43046218553732;10.347851841445554
488;46.43046218553732;10.54785184144555
489;46.53046218553732;10.54785184144555
